Name: 'Long'
Type: 'int64'
SerializerMethod: 'avro.WritePrimitive'
  Children: 'Children() not implemented!'
  Doc: 'Doc() not implemented!'
  Schema: 'Schema() not implemented!'
  IsOpt: 'false'
  IsOptSimple: 'false'
  OptIdx: 'OptIdx() not implemented!'
  NonOptIdx: 'NonOptIdx() not implemented!'
