Name: 'ArrayMapLoginInfo'
Type: '[]map[string]LoginInfo'
SerializerMethod: 'writeArrayMapLoginInfo'
  Children: 
    Name: 'MapLoginInfo'
    Type: 'map[string]LoginInfo'
    SerializerMethod: 'writeMapLoginInfo'
      Children: 
        Name: 'LoginInfo'
        Type: 'LoginInfo'
        SerializerMethod: 'writeLoginInfo'
          Children: 
            Name: 'User'
            Type: 'string'
            SerializerMethod: 'avro.WritePrimitive'
              Children: 'Children() not implemented!'
              Doc: ''
              Schema: 'Schema() not implemented!'
              IsOpt: 'false'
              IsOptSimple: 'false'
              OptIdx: 'OptIdx() not implemented!'
              NonOptIdx: 'NonOptIdx() not implemented!'
            Name: 'Pass'
            Type: '[]byte'
            SerializerMethod: 'avro.WritePrimitive'
              Children: 'Children() not implemented!'
              Doc: ''
              Schema: 'Schema() not implemented!'
              IsOpt: 'false'
              IsOptSimple: 'false'
              OptIdx: 'OptIdx() not implemented!'
              NonOptIdx: 'NonOptIdx() not implemented!'
            Name: 'Recovery'
            Type: 'RecoveryMethod'
            SerializerMethod: 'writeRecoveryMethod'
              Children: 
                Name: 'Email'
                Type: 'Email'
                SerializerMethod: 'SerializerMethod() not implemented!'
                  Children: 'Children() not implemented!'
                  Doc: 'Doc() not implemented!'
                  Schema: 'Schema() not implemented!'
                  IsOpt: 'false'
                  IsOptSimple: 'false'
                  OptIdx: 'OptIdx() not implemented!'
                  NonOptIdx: 'NonOptIdx() not implemented!'
                Name: 'Phone'
                Type: 'Phone'
                SerializerMethod: 'SerializerMethod() not implemented!'
                  Children: 'Children() not implemented!'
                  Doc: 'Doc() not implemented!'
                  Schema: 'Schema() not implemented!'
                  IsOpt: 'false'
                  IsOptSimple: 'false'
                  OptIdx: 'OptIdx() not implemented!'
                  NonOptIdx: 'NonOptIdx() not implemented!'
                Name: 'SecretQuestion'
                Type: 'SecretQuestion'
                SerializerMethod: 'SerializerMethod() not implemented!'
                  Children: 'Children() not implemented!'
                  Doc: 'Doc() not implemented!'
                  Schema: 'Schema() not implemented!'
                  IsOpt: 'false'
                  IsOptSimple: 'false'
                  OptIdx: 'OptIdx() not implemented!'
                  NonOptIdx: 'NonOptIdx() not implemented!'

              Doc: ''
              Schema: 'Schema() not implemented!'
              IsOpt: 'false'
              IsOptSimple: 'false'
              OptIdx: 'OptIdx() not implemented!'
              NonOptIdx: 'NonOptIdx() not implemented!'
            Name: 'LastLoginTimestamp'
            Type: '*int64'
            SerializerMethod: 'avro.WritePrimitive'
              Children: 
                Name: 'Null'
                Type: ''
                SerializerMethod: 'avro.WritePrimitive'
                  Children: 'Children() not implemented!'
                  Doc: ''
                  Schema: 'Schema() not implemented!'
                  IsOpt: 'false'
                  IsOptSimple: 'false'
                  OptIdx: 'OptIdx() not implemented!'
                  NonOptIdx: 'NonOptIdx() not implemented!'
                Name: 'Long'
                Type: 'int64'
                SerializerMethod: 'avro.WritePrimitive'
                  Children: 'Children() not implemented!'
                  Doc: ''
                  Schema: 'Schema() not implemented!'
                  IsOpt: 'false'
                  IsOptSimple: 'false'
                  OptIdx: 'OptIdx() not implemented!'
                  NonOptIdx: 'NonOptIdx() not implemented!'

              Doc: ''
              Schema: 'Schema() not implemented!'
              IsOpt: 'true'
              IsOptSimple: 'true'
              OptIdx: '0'
              NonOptIdx: '1'
            Name: 'Status'
            Type: 'StatusInfo'
            SerializerMethod: 'writeStatusInfo'
              Children: 
                Name: 'Code'
                Type: 'StatusCode'
                SerializerMethod: 'writeStatusCode'
                  Children: 
                    Name: 'Ok'
                    Type: 'Ok'
                    SerializerMethod: 'SerializerMethod() not implemented!'
                      Children: 'Children() not implemented!'
                      Doc: 'Doc() not implemented!'
                      Schema: 'Schema() not implemented!'
                      IsOpt: 'false'
                      IsOptSimple: 'false'
                      OptIdx: 'OptIdx() not implemented!'
                      NonOptIdx: 'NonOptIdx() not implemented!'
                    Name: 'Unconfirmed'
                    Type: 'Unconfirmed'
                    SerializerMethod: 'SerializerMethod() not implemented!'
                      Children: 'Children() not implemented!'
                      Doc: 'Doc() not implemented!'
                      Schema: 'Schema() not implemented!'
                      IsOpt: 'false'
                      IsOptSimple: 'false'
                      OptIdx: 'OptIdx() not implemented!'
                      NonOptIdx: 'NonOptIdx() not implemented!'
                    Name: 'Banned'
                    Type: 'Banned'
                    SerializerMethod: 'SerializerMethod() not implemented!'
                      Children: 'Children() not implemented!'
                      Doc: 'Doc() not implemented!'
                      Schema: 'Schema() not implemented!'
                      IsOpt: 'false'
                      IsOptSimple: 'false'
                      OptIdx: 'OptIdx() not implemented!'
                      NonOptIdx: 'NonOptIdx() not implemented!'

                  Doc: ''
                  Schema: 'Schema() not implemented!'
                  IsOpt: 'false'
                  IsOptSimple: 'false'
                  OptIdx: 'OptIdx() not implemented!'
                  NonOptIdx: 'NonOptIdx() not implemented!'
                Name: 'LastChangeTimestamp'
                Type: 'int64'
                SerializerMethod: 'avro.WritePrimitive'
                  Children: 'Children() not implemented!'
                  Doc: ''
                  Schema: 'Schema() not implemented!'
                  IsOpt: 'false'
                  IsOptSimple: 'false'
                  OptIdx: 'OptIdx() not implemented!'
                  NonOptIdx: 'NonOptIdx() not implemented!'

              Doc: ''
              Schema: 'Schema() not implemented!'
              IsOpt: 'false'
              IsOptSimple: 'false'
              OptIdx: 'OptIdx() not implemented!'
              NonOptIdx: 'NonOptIdx() not implemented!'

          Doc: ''
          Schema: 'Schema() not implemented!'
          IsOpt: 'false'
          IsOptSimple: 'false'
          OptIdx: 'OptIdx() not implemented!'
          NonOptIdx: 'NonOptIdx() not implemented!'

      Doc: ''
      Schema: 'Schema() not implemented!'
      IsOpt: 'false'
      IsOptSimple: 'false'
      OptIdx: 'OptIdx() not implemented!'
      NonOptIdx: 'NonOptIdx() not implemented!'

  Doc: ''
  Schema: 'Schema() not implemented!'
  IsOpt: 'false'
  IsOptSimple: 'false'
  OptIdx: 'OptIdx() not implemented!'
  NonOptIdx: 'NonOptIdx() not implemented!'
