Name: 'MacAddress'
Type: '[6]byte'
SerializerMethod: 'writeMacAddress'
  Children: 'Children() not implemented!'
  Doc: 'Doc() not implemented!'
  Schema: 'Schema() not implemented!'
  IsOpt: 'false'
  IsOptSimple: 'false'
  OptIdx: 'OptIdx() not implemented!'
  NonOptIdx: 'NonOptIdx() not implemented!'
